{
  "tickets": [
    {
      "_type": "ticket",
      "id": 181,
      "slug": "ti_dy9pk2xuoPDrPBzRKArfMjw",
      "unique_url": "https://ti.to/demo/awesomeconf/tickets/ti_dy9pk2xuoPDrPBzRKArfMjw",
      "company_name": null,
      "email": null,
      "metadata": null,
      "first_name": null,
      "last_name": null,
      "name": "",
      "number": 181,
      "phone_number": null,
      "price": 90.0,
      "reference": "HSJV-1",
      "state": "started",
      "test_mode": false,
      "registration_id": 31,
      "registration_name": null,
      "registration_email": null,
      "release_id": 1,
      "release_title": "Early Bird",
      "release_archived": false,
      "avatar_url": "https://secure.gravatar.com/avatar/d41d8cd98f00b204e9800998ecf8427e?default=https://starwavatars.global.ssl.fastly.net/avatars/d41d8cd98f00b204e9800998ecf8427e.png",
      "void": false,
      "changes_locked": false,
      "consented_at": null,
      "discount_code_used": null,
      "tag_names": [

      ],
      "created_at": "2022-03-23T11:35:58.000Z",
      "updated_at": "2022-03-23T11:35:58.000Z"
    },
    {
      "_type": "ticket",
      "id": 172,
      "slug": "ti_dxZ8AZqPUa2AJdN1UeTke8Q",
      "unique_url": "https://ti.to/demo/awesomeconf/tickets/ti_dxZ8AZqPUa2AJdN1UeTke8Q",
      "company_name": null,
      "email": null,
      "metadata": null,
      "first_name": null,
      "last_name": null,
      "name": "",
      "number": 172,
      "phone_number": null,
      "price": 0.0,
      "reference": "TLLS-1",
      "state": "incomplete",
      "test_mode": false,
      "registration_id": 29,
      "registration_name": "Poe Dameron",
      "registration_email": "carli.mcdermott@example.net",
      "release_id": 3,
      "release_title": "Exhibitor",
      "release_archived": false,
      "avatar_url": "https://secure.gravatar.com/avatar/d41d8cd98f00b204e9800998ecf8427e?default=https://starwavatars.global.ssl.fastly.net/avatars/d41d8cd98f00b204e9800998ecf8427e.png",
      "void": false,
      "changes_locked": false,
      "consented_at": null,
      "discount_code_used": null,
      "tag_names": [

      ],
      "created_at": "2022-03-23T11:35:31.000Z",
      "updated_at": "2022-03-23T11:35:31.000Z"
    },
    "..."
  ],
  "meta": {
    "api_version": "3.0.0",
    "current_page": 1,
    "next_page": 2,
    "prev_page": null,
    "total_pages": 2,
    "total_count": 181,
    "per_page": 100,
    "overall_total": 181,
    "resources_hidden_by_default_count": 0,
    "search_states_hidden_by_default": [
      "void",
      "archived"
    ],
    "sort_options": {
      "First name A-Z": {
        "attr": "first_name",
        "direction": "asc"
      },
      "First name Z-A": {
        "attr": "first_name",
        "direction": "desc"
      },
      "Last name A-Z": {
        "attr": "last_name",
        "direction": "asc"
      },
      "Last name Z-A": {
        "attr": "last_name",
        "direction": "desc"
      },
      "Ticket date, earliest first": {
        "attr": "tickets.created_at",
        "direction": "asc"
      },
      "Ticket date, newest first": {
        "attr": "tickets.created_at",
        "direction": "desc",
        "default": true
      },
      "Price, least first": {
        "attr": "price",
        "direction": "asc"
      },
      "Price, most first": {
        "attr": "price",
        "direction": "desc"
      },
      "Reference": {
        "attr": "reference",
        "direction": "asc"
      },
      "Number": {
        "attr": "number",
        "direction": "asc"
      },
      "Last change": {
        "attr": "updated_at",
        "direction": "desc"
      }
    },
    "filter_options": {
      "types": [
        {
          "label": "Added manually",
          "value": "manual"
        },
        {
          "label": "Ordered by customer",
          "value": "standard"
        }
      ],
      "release_ids": [
        {
          "label": "Early Bird",
          "value": "early-bird"
        },
        {
          "label": "Standard",
          "value": "standard"
        },
        {
          "label": "Exhibitor",
          "value": "exhibitor"
        },
        {
          "label": "Speaker",
          "value": "speaker"
        }
      ],
      "activity_ids": [
        {
          "label": "Conference",
          "value": "1"
        },
        {
          "label": "Dinner",
          "value": "2"
        },
        {
          "label": "Workshop",
          "value": "3"
        },
        {
          "label": "Conference Copy",
          "value": "5"
        }
      ],
      "sections": {
        "states": {
          "label": "Status",
          "open": false
        },
        "types": {
          "label": "Type",
          "open": false
        },
        "release_ids": {
          "label": "Tickets",
          "open": false
        },
        "activity_ids": {
          "label": "Activities",
          "open": false
        }
      },
      "collection": false,
      "states": [
        {
          "label": "Complete",
          "value": "complete"
        },
        {
          "label": "Incomplete",
          "value": "incomplete"
        },
        {
          "label": "Unassigned",
          "value": "unassigned"
        },
        {
          "label": "Void",
          "value": "void"
        },
        {
          "label": "Changes Locked",
          "value": "changes_locked"
        },
        {
          "label": "Changes Allowed",
          "value": "changes_allowed"
        },
        {
          "label": "Archived",
          "value": "archived"
        }
      ],
      "selected_states": [
        "complete",
        "incomplete",
        "unassigned",
        "changes_locked",
        "changes_allowed"
      ]
    }
  }
}
